E:\softdev\XoGui\XoGui\src\main\java\com\mycompany\xogui\Game.java
E:\softdev\XoGui\XoGui\src\main\java\com\mycompany\xogui\OxGui.java
E:\softdev\XoGui\XoGui\src\main\java\com\mycompany\xogui\OXOOP.java
E:\softdev\XoGui\XoGui\src\main\java\com\mycompany\xogui\Board.java
E:\softdev\XoGui\XoGui\src\main\java\com\mycompany\xogui\HelloMe.java
E:\softdev\XoGui\XoGui\src\main\java\com\mycompany\xogui\Player.java
